{
  "Cluster": "arn:aws:ecs:eu-central-1:111111111111:cluster/cluster-name",
  "TaskARN": "arn:aws:ecs:eu-central-1:111111111111:task/cluster-name/11111111111111111111111111111111",
  "Family": "606127e0-42dc-49e0-9a7e-947ae36f8c4e",
  "Revision": "1",
  "DesiredStatus": "STOPPED",
  "KnownStatus": "RUNNING",
  "Containers": [
    {
      "DockerId": "11111111111111111111111111111111-122881863",
      "Name": "monitoring",
      "DockerName": "monitoring",
      "Image": "alpine:latest",
      "ImageID": "sha256:185518070891758909c9f839cf4ca393ee977ac378609f700f60a771a2dfe321",
      "Labels": {
        "com.amazonaws.ecs.cluster": "arn:aws:ecs:eu-central-1:111111111111:cluster/cluster-name",
        "com.amazonaws.ecs.container-name": "monitoring",
        "com.amazonaws.ecs.task-arn": "arn:aws:ecs:eu-central-1:111111111111:task/cluster-name/11111111111111111111111111111111",
        "com.amazonaws.ecs.task-definition-family": "606127e0-42dc-49e0-9a7e-947ae36f8c4e",
        "com.amazonaws.ecs.task-definition-version": "1"
      },
      "DesiredStatus": "STOPPED",
      "KnownStatus": "RUNNING",
      "Limits": {
        "CPU": 2
      },
      "CreatedAt": "2020-07-07T21:52:22.13163683Z",
      "StartedAt": "2020-07-07T21:52:22.13163683Z",
      "Type": "NORMAL",
      "Networks": [
        {
          "NetworkMode": "awsvpc",
          "IPv4Addresses": [
            "10.19.73.253"
          ]
        }
      ]
    },
    {
      "DockerId": "11111111111111111111111111111111-3544459651",
      "Name": "pipeline",
      "DockerName": "pipeline",
      "Image": "alpine:latest",
      "ImageID": "sha256:185518070891758909c9f839cf4ca393ee977ac378609f700f60a771a2dfe321",
      "Labels": {
        "com.amazonaws.ecs.cluster": "arn:aws:ecs:eu-central-1:111111111111:cluster/cluster-name",
        "com.amazonaws.ecs.container-name": "pipeline",
        "com.amazonaws.ecs.task-arn": "arn:aws:ecs:eu-central-1:111111111111:task/cluster-name/11111111111111111111111111111111",
        "com.amazonaws.ecs.task-definition-family": "606127e0-42dc-49e0-9a7e-947ae36f8c4e",
        "com.amazonaws.ecs.task-definition-version": "1"
      },
      "DesiredStatus": "STOPPED",
      "KnownStatus": "STOPPED",
      "_KnownStatus": "RUNNING",
      "ExitCode": 0,
      "Limits": {
        "CPU": 2
      },
      "CreatedAt": "2020-07-07T21:52:22.150236524Z",
      "StartedAt": "2020-07-07T21:52:22.150236524Z",
      "FinishedAt": "2020-07-07T21:52:36.141698362Z",
      "Type": "NORMAL",
      "Networks": [
        {
          "NetworkMode": "awsvpc",
          "IPv4Addresses": [
            "10.19.73.253"
          ]
        }
      ]
    }
  ],
  "Limits": {
    "CPU": 4,
    "Memory": 30720
  },
  "PullStartedAt": "2020-07-07T21:52:18.993099563Z",
  "PullStoppedAt": "2020-07-07T21:52:20.859893173Z",
  "ExecutionStoppedAt": "2020-07-07T21:52:36.141698362Z",
  "AvailabilityZone": "eu-central-1c"
}
